<?xml version="1.0" encoding="UTF-8" standalone="no"?>
<!-- Created with Inkscape (http://www.inkscape.org/) -->

<svg
   width="32"
   height="64"
   viewBox="0 0 8.4666665 16.933333"
   version="1.1"
   id="svg5"
   inkscape:version="1.1 (c4e8f9e, 2021-05-24)"
   sodipodi:docname="turbine.svg"
   xmlns:inkscape="http://www.inkscape.org/namespaces/inkscape"
   xmlns:sodipodi="http://sodipodi.sourceforge.net/DTD/sodipodi-0.dtd"
   xmlns="http://www.w3.org/2000/svg"
   xmlns:svg="http://www.w3.org/2000/svg">
  <sodipodi:namedview
     id="namedview7"
     pagecolor="#505050"
     bordercolor="#ffffff"
     borderopacity="1"
     inkscape:pageshadow="0"
     inkscape:pageopacity="0"
     inkscape:pagecheckerboard="1"
     inkscape:document-units="px"
     showgrid="false"
     inkscape:zoom="8"
     inkscape:cx="26.3125"
     inkscape:cy="32.625"
     inkscape:window-width="1322"
     inkscape:window-height="744"
     inkscape:window-x="44"
     inkscape:window-y="24"
     inkscape:window-maximized="1"
     inkscape:current-layer="layer1"
     units="px"
     height="64px"
     width="32px" />
  <defs
     id="defs2" />
  <g
     inkscape:label="Dot"
     inkscape:groupmode="layer"
     id="layer1"
     sodipodi:insensitive="true">
    <circle
       style="opacity:0.997;fill:#ffffff;fill-opacity:1;stroke:#000000;stroke-width:0.529167;stroke-linejoin:round;stroke-miterlimit:4;stroke-dasharray:none;stroke-opacity:1;stop-color:#000000"
       id="dot"
       cx="4.2333331"
       cy="15.255906"
       r="1.3229166" />
  </g>
  <g
     inkscape:groupmode="layer"
     id="layer2"
     inkscape:label="Turbine"
     style="opacity:0.7">
    <path
       sodipodi:nodetypes="cccc"
       d="m 4.2333333,6.576627 0.3010134,7.141314 h -0.602027 z"
       inkscape:transform-center-y="1.4759651"
       inkscape:transform-center-x="-0.20292199"
       style="display:inline;opacity:0.999;fill:#000000;fill-opacity:1;stroke:#000000;stroke-width:0.4455;stroke-linecap:round;stroke-linejoin:round;stroke-miterlimit:4;stroke-dasharray:none"
       id="path840" />
    <path
       sodipodi:nodetypes="ccccccc"
       d="M 7.4938112,8.2353732 4.2333329,6.3759513 0.97285501,8.2406034 4.141323,6.216963 4.233333,2.7350968 4.325343,6.2168064 Z"
       inkscape:transform-center-y="-0.6529013"
       inkscape:transform-center-x="-0.33673289"
       style="display:inline;opacity:0.999;fill:#000000;fill-opacity:1;stroke:#000000;stroke-width:0.321282;stroke-linecap:square;stroke-linejoin:round;stroke-miterlimit:4;stroke-dasharray:none"
       id="path836" />
    <circle
       r="0.37175727"
       cy="6.407516"
       cx="4.2333331"
       id="path849"
       style="display:inline;opacity:0.999;fill:#000000;fill-opacity:1;stroke:#000000;stroke-width:0.284935;stroke-linecap:round;stroke-linejoin:round;stroke-miterlimit:4;stroke-dasharray:none" />
  </g>
</svg>
